{
	"info": {
		"_postman_id": "1ef31936-f584-4126-a31b-fd97ccec49ab",
		"name": "Rollong Glory API",
		"schema": "https://schema.getpostman.com/json/collection/v2.1.0/collection.json"
	},
	"item": [
		{
			"name": "users/login",
			"request": {
				"method": "POST",
				"header": [
					{
						"key": "x-token",
						"value": "AKIAXRW6HM3I7D2ZWZ6J",
						"type": "text"
					},
					{
						"key": "Content-Type",
						"value": "application/x-www-form-urlencoded",
						"type": "text"
					}
				],
				"body": {
					"mode": "urlencoded",
					"urlencoded": [
						{
							"key": "email",
							"value": "ridhoamdeni@rollingglory.com",
							"type": "text"
						},
						{
							"key": "password",
							"value": "123123",
							"type": "text"
						}
					]
				},
				"url": {
					"raw": "{{base_url}}users/login",
					"host": [
						"{{base_url}}users"
					],
					"path": [
						"login"
					]
				}
			},
			"response": []
		},
		{
			"name": "users/create",
			"request": {
				"method": "POST",
				"header": [
					{
						"key": "x-token",
						"value": "AKIAXRW6HM3I7D2ZWZ6J",
						"type": "text"
					},
					{
						"key": "Content-Type",
						"value": "application/x-www-form-urlencoded",
						"type": "text"
					}
				],
				"body": {
					"mode": "urlencoded",
					"urlencoded": [
						{
							"key": "name",
							"value": "ridhoamdeni",
							"type": "text"
						},
						{
							"key": "email",
							"value": "ridhoamdeni@rollingglory.com",
							"type": "text"
						},
						{
							"key": "password",
							"value": "asdasd",
							"type": "text"
						},
						{
							"key": "point",
							"value": "200000",
							"type": "text"
						}
					]
				},
				"url": {
					"raw": "{{base_url}}users/create",
					"host": [
						"{{base_url}}users"
					],
					"path": [
						"create"
					]
				}
			},
			"response": []
		},
		{
			"name": "users/update",
			"request": {
				"method": "POST",
				"header": [
					{
						"key": "x-token",
						"value": "AKIAXRW6HM3I7D2ZWZ6J",
						"type": "text"
					},
					{
						"key": "Content-Type",
						"value": "application/x-www-form-urlencoded",
						"type": "text"
					}
				],
				"body": {
					"mode": "urlencoded",
					"urlencoded": [
						{
							"key": "id",
							"value": "3",
							"type": "text"
						},
						{
							"key": "name",
							"value": "ridhoamdeni",
							"type": "text"
						},
						{
							"key": "email",
							"value": "ridhoamdeni@rollingglory.com",
							"type": "text"
						},
						{
							"key": "password",
							"value": "123123",
							"type": "text"
						},
						{
							"key": "point",
							"value": "500000",
							"type": "text"
						}
					]
				},
				"url": {
					"raw": "{{base_url}}users/update",
					"host": [
						"{{base_url}}users"
					],
					"path": [
						"update"
					]
				}
			},
			"response": []
		},
		{
			"name": "users/read",
			"request": {
				"method": "POST",
				"header": [
					{
						"key": "x-token",
						"value": "AKIAXRW6HM3I7D2ZWZ6J",
						"type": "text"
					},
					{
						"key": "Content-Type",
						"value": "application/x-www-form-urlencoded",
						"type": "text"
					}
				],
				"body": {
					"mode": "urlencoded",
					"urlencoded": [
						{
							"key": "search",
							"value": "",
							"description": "untuk melakukan seach menggunakan name, email yang ada users",
							"type": "text"
						},
						{
							"key": "page",
							"value": "0",
							"type": "text"
						},
						{
							"key": "offset",
							"value": "10",
							"description": "offset adalah batas pencarian yang di hasilkan atau dalam pagination",
							"type": "text"
						},
						{
							"key": "flag_show",
							"value": "",
							"description": "untuk mencari total jumlah yang ada pada users gunakan value '1' jika tidak flag show null",
							"type": "text"
						}
					]
				},
				"url": {
					"raw": "{{base_url}}users/read",
					"host": [
						"{{base_url}}users"
					],
					"path": [
						"read"
					]
				}
			},
			"response": []
		},
		{
			"name": "users/delete",
			"request": {
				"method": "POST",
				"header": [
					{
						"key": "x-token",
						"value": "AKIAXRW6HM3I7D2ZWZ6J",
						"type": "text"
					},
					{
						"key": "Content-Type",
						"value": "application/x-www-form-urlencoded",
						"type": "text"
					}
				],
				"body": {
					"mode": "urlencoded",
					"urlencoded": [
						{
							"key": "id",
							"value": "2",
							"type": "text"
						}
					]
				},
				"url": {
					"raw": "{{base_url}}users/delete",
					"host": [
						"{{base_url}}users"
					],
					"path": [
						"delete"
					]
				}
			},
			"response": []
		},
		{
			"name": "category/create",
			"request": {
				"method": "POST",
				"header": [
					{
						"key": "x-token",
						"value": "AKIAXRW6HM3I7D2ZWZ6J",
						"type": "text"
					},
					{
						"key": "Content-Type",
						"value": "application/x-www-form-urlencoded",
						"type": "text"
					}
				],
				"body": {
					"mode": "urlencoded",
					"urlencoded": [
						{
							"key": "name",
							"value": "phone",
							"type": "text"
						}
					]
				},
				"url": {
					"raw": "{{base_url}}category/create",
					"host": [
						"{{base_url}}category"
					],
					"path": [
						"create"
					]
				}
			},
			"response": []
		},
		{
			"name": "category/read",
			"request": {
				"method": "POST",
				"header": [
					{
						"key": "x-token",
						"value": "AKIAXRW6HM3I7D2ZWZ6J",
						"type": "text"
					},
					{
						"key": "Content-Type",
						"value": "application/x-www-form-urlencoded",
						"type": "text"
					}
				],
				"body": {
					"mode": "urlencoded",
					"urlencoded": [
						{
							"key": "search",
							"value": "",
							"description": "untuk melakukan seach menggunakan name, yang ada di category",
							"type": "text"
						},
						{
							"key": "page",
							"value": "0",
							"type": "text"
						},
						{
							"key": "offset",
							"value": "10",
							"description": "offset adalah batas pencarian yang di hasilkan atau dalam pagination",
							"type": "text"
						},
						{
							"key": "flag_show",
							"value": "",
							"description": "untuk mencari total jumlah yang ada pada category gunakan value '1' jika tidak flag show null",
							"type": "text"
						}
					]
				},
				"url": {
					"raw": "{{base_url}}category/read",
					"host": [
						"{{base_url}}category"
					],
					"path": [
						"read"
					]
				}
			},
			"response": []
		},
		{
			"name": "category/update",
			"request": {
				"method": "POST",
				"header": [
					{
						"key": "x-token",
						"value": "AKIAXRW6HM3I7D2ZWZ6J",
						"type": "text"
					},
					{
						"key": "Content-Type",
						"value": "application/x-www-form-urlencoded",
						"type": "text"
					}
				],
				"body": {
					"mode": "urlencoded",
					"urlencoded": [
						{
							"key": "id",
							"value": "1",
							"type": "text"
						},
						{
							"key": "name",
							"value": "phone1",
							"type": "text"
						}
					]
				},
				"url": {
					"raw": "{{base_url}}category/update",
					"host": [
						"{{base_url}}category"
					],
					"path": [
						"update"
					]
				}
			},
			"response": []
		},
		{
			"name": "category/delete",
			"request": {
				"method": "POST",
				"header": [
					{
						"key": "x-token",
						"value": "AKIAXRW6HM3I7D2ZWZ6J",
						"type": "text"
					},
					{
						"key": "Content-Type",
						"value": "application/x-www-form-urlencoded",
						"type": "text"
					}
				],
				"body": {
					"mode": "urlencoded",
					"urlencoded": [
						{
							"key": "id",
							"value": "1",
							"type": "text"
						}
					]
				},
				"url": {
					"raw": "{{base_url}}category/delete",
					"host": [
						"{{base_url}}category"
					],
					"path": [
						"delete"
					]
				}
			},
			"response": []
		},
		{
			"name": "gift/create",
			"request": {
				"method": "POST",
				"header": [
					{
						"key": "x-token",
						"value": "{{token}}",
						"type": "text"
					},
					{
						"key": "Content-Type",
						"value": "application/x-www-form-urlencoded",
						"type": "text"
					}
				],
				"body": {
					"mode": "urlencoded",
					"urlencoded": [
						{
							"key": "name",
							"value": "Samsung Galaxy S9 -Midnight Black 4/64 GB",
							"type": "text"
						},
						{
							"key": "point",
							"value": "200000",
							"type": "text"
						},
						{
							"key": "description",
							"value": "Ukuran Layar 6.2 inci, Dual Egge Super AMOLED 2960 x 1440 (Quad HD+)  529 ppi, 18 5:9 Memori Ram 6 GB ( LPDDR4), ROM 64 GB, MicroSD up to 400GB Sistem operasi: Andoid 8.0 (Oreo)",
							"type": "text"
						},
						{
							"key": "quantity",
							"value": "3",
							"type": "text"
						},
						{
							"key": "image",
							"value": "assets/phone/samsung-galaxy-s9",
							"type": "text"
						},
						{
							"key": "rate",
							"value": "3",
							"description": "roundoff number to nearest 0.5",
							"type": "text"
						},
						{
							"key": "category_id",
							"value": "1",
							"type": "text"
						},
						{
							"key": "hot_item",
							"value": "1",
							"type": "text"
						},
						{
							"key": "new_item",
							"value": "1",
							"type": "text"
						},
						{
							"key": "best_seller",
							"value": "",
							"type": "text"
						},
						{
							"key": "status",
							"value": "1",
							"type": "text"
						}
					]
				},
				"url": {
					"raw": "{{base_url}}gift/create",
					"host": [
						"{{base_url}}gift"
					],
					"path": [
						"create"
					]
				}
			},
			"response": []
		},
		{
			"name": "gift/read",
			"request": {
				"method": "POST",
				"header": [
					{
						"key": "x-token",
						"value": "AKIAXRW6HM3I7D2ZWZ6J",
						"type": "text"
					},
					{
						"key": "Content-Type",
						"value": "application/x-www-form-urlencoded",
						"type": "text"
					}
				],
				"body": {
					"mode": "urlencoded",
					"urlencoded": [
						{
							"key": "search",
							"value": "",
							"description": "untuk melakukan seach menggunakan name product",
							"type": "text"
						},
						{
							"key": "page",
							"value": "0",
							"type": "text"
						},
						{
							"key": "offset",
							"value": "10",
							"description": "offset adalah batas pencarian yang di hasilkan atau dalam pagination",
							"type": "text"
						},
						{
							"key": "flag_show",
							"value": "",
							"description": "untuk mencari total jumlah yang ada pada users gunakan value '1' jika tidak flag show null",
							"type": "text"
						},
						{
							"key": "sort",
							"value": "1",
							"description": "if null sort by asc, and if 1 sort by desc",
							"type": "text"
						},
						{
							"key": "rate",
							"value": "1",
							"description": "if null rate just DESC gift, if 1 sort by rate",
							"type": "text"
						}
					]
				},
				"url": {
					"raw": "{{base_url}}gift/read",
					"host": [
						"{{base_url}}gift"
					],
					"path": [
						"read"
					]
				}
			},
			"response": []
		},
		{
			"name": "gift/update",
			"request": {
				"method": "POST",
				"header": [
					{
						"key": "x-token",
						"value": "AKIAXRW6HM3I7D2ZWZ6J",
						"type": "text"
					},
					{
						"key": "Content-Type",
						"value": "application/x-www-form-urlencoded",
						"type": "text"
					}
				],
				"body": {
					"mode": "urlencoded",
					"urlencoded": [
						{
							"key": "id",
							"value": "2",
							"type": "text"
						},
						{
							"key": "name",
							"value": "Iphone 11 PRO",
							"type": "text"
						},
						{
							"key": "point",
							"value": "500000",
							"type": "text"
						},
						{
							"key": "description",
							"value": "IPHONE 11 PRO NEW",
							"type": "text"
						},
						{
							"key": "quantity",
							"value": "1",
							"type": "text"
						},
						{
							"key": "image",
							"value": "assets/phone/iphone-new-11-pro",
							"type": "text"
						},
						{
							"key": "rate",
							"value": "3.9",
							"type": "text"
						},
						{
							"key": "category_id",
							"value": "1",
							"type": "text"
						},
						{
							"key": "hot_item",
							"value": "1",
							"type": "text"
						},
						{
							"key": "new_item",
							"value": "1",
							"type": "text"
						},
						{
							"key": "best_seller",
							"value": "1",
							"type": "text"
						},
						{
							"key": "status",
							"value": "1",
							"type": "text"
						}
					]
				},
				"url": {
					"raw": "{{base_url}}gift/update",
					"host": [
						"{{base_url}}gift"
					],
					"path": [
						"update"
					]
				}
			},
			"response": []
		},
		{
			"name": "gift/delete",
			"request": {
				"method": "POST",
				"header": [
					{
						"key": "x-token",
						"value": "AKIAXRW6HM3I7D2ZWZ6J",
						"type": "text"
					},
					{
						"key": "Content-Type",
						"value": "application/x-www-form-urlencoded",
						"type": "text"
					}
				],
				"body": {
					"mode": "urlencoded",
					"urlencoded": [
						{
							"key": "id",
							"value": "2",
							"type": "text"
						}
					]
				},
				"url": {
					"raw": "{{base_url}}gift/delete",
					"host": [
						"{{base_url}}gift"
					],
					"path": [
						"delete"
					]
				}
			},
			"response": []
		},
		{
			"name": "gift/redeem",
			"request": {
				"method": "POST",
				"header": [
					{
						"key": "x-token",
						"value": "AKIAXRW6HM3I7D2ZWZ6J",
						"type": "text"
					},
					{
						"key": "Content-Type",
						"value": "application/x-www-form-urlencoded",
						"type": "text"
					}
				],
				"body": {
					"mode": "urlencoded",
					"urlencoded": [
						{
							"key": "user_id",
							"value": "3",
							"type": "text"
						},
						{
							"key": "gift_id",
							"value": "1",
							"type": "text"
						}
					]
				},
				"url": {
					"raw": "{{base_url}}gift/redeem",
					"host": [
						"{{base_url}}gift"
					],
					"path": [
						"redeem"
					]
				}
			},
			"response": []
		}
	]
}